[
  {
    "full_name": "Washington Commanders",
    "bye_week": "14",
    "team": "WAS",
    "sport": "nfl",
    "position": "DEF",
    "player_id": "WAS",
    "last_name": "Commanders",
    "injury_status": null,
    "first_name": "Washington",
    "fantasy_positions": [
      "DEF"
    ],
    "active": true
  },
  {
    "full_name": "Arizona Cardinals",
    "bye_week": "14",
    "team": "ARI",
    "sport": "nfl",
    "position": "DEF",
    "player_id": "ARI",
    "last_name": "Cardinals",
    "injury_status": null,
    "first_name": "Arizona",
    "fantasy_positions": [
      "DEF"
    ],
    "active": true
  },
  {
    "full_name": "Atlanta Falcons",
    "bye_week": "12",
    "team": "ATL",
    "sport": "nfl",
    "position": "DEF",
    "player_id": "ATL",
    "last_name": "Falcons",
    "injury_status": null,
    "first_name": "Atlanta",
    "fantasy_positions": [
      "DEF"
    ],
    "active": true
  },
  {
    "full_name": "Tennessee Titans",
    "bye_week": "5",
    "team": "TEN",
    "sport": "nfl",
    "position": "DEF",
    "player_id": "TEN",
    "last_name": "Titans",
    "injury_status": null,
    "first_name": "Tennessee",
    "fantasy_positions": [
      "DEF"
    ],
    "active": true
  },
  {
    "full_name": "Los Angeles Rams",
    "bye_week": "6",
    "team": "LAR",
    "sport": "nfl",
    "position": "DEF",
    "player_id": "LAR",
    "last_name": "Rams",
    "injury_status": null,
    "first_name": "Los Angeles",
    "fantasy_positions": [
      "DEF"
    ],
    "active": true
  },
  {
    "full_name": "Pittsburgh Steelers",
    "bye_week": "9",
    "team": "PIT",
    "sport": "nfl",
    "position": "DEF",
    "player_id": "PIT",
    "last_name": "Steelers",
    "injury_status": null,
    "first_name": "Pittsburgh",
    "fantasy_positions": [
      "DEF"
    ],
    "active": true
  },
  {
    "full_name": "New England Patriots",
    "bye_week": "14",
    "team": "NE",
    "sport": "nfl",
    "position": "DEF",
    "player_id": "NE",
    "last_name": "Patriots",
    "injury_status": null,
    "first_name": "New England",
    "fantasy_positions": [
      "DEF"
    ],
    "active": true
  },
  {
    "full_name": "Cleveland Browns",
    "bye_week": "10",
    "team": "CLE",
    "sport": "nfl",
    "position": "DEF",
    "player_id": "CLE",
    "last_name": "Browns",
    "injury_status": null,
    "first_name": "Cleveland",
    "fantasy_positions": [
      "DEF"
    ],
    "active": true
  },
  {
    "full_name": "Seattle Seahawks",
    "bye_week": "10",
    "team": "SEA",
    "sport": "nfl",
    "position": "DEF",
    "player_id": "SEA",
    "last_name": "Seahawks",
    "injury_status": null,
    "first_name": "Seattle",
    "fantasy_positions": [
      "DEF"
    ],
    "active": true
  },
  {
    "full_name": "Houston Texans",
    "bye_week": "14",
    "team": "HOU",
    "sport": "nfl",
    "position": "DEF",
    "player_id": "HOU",
    "last_name": "Texans",
    "injury_status": null,
    "first_name": "Houston",
    "fantasy_positions": [
      "DEF"
    ],
    "active": true
  },
  {
    "full_name": "Las Vegas Raiders",
    "bye_week": "10",
    "team": "LV",
    "sport": "nfl",
    "position": "DEF",
    "player_id": "LV",
    "last_name": "Raiders",
    "injury_status": null,
    "first_name": "Las Vegas",
    "fantasy_positions": [
      "DEF"
    ],
    "active": true
  },
  {
    "full_name": "Los Angeles Chargers",
    "bye_week": "5",
    "team": "LAC",
    "sport": "nfl",
    "position": "DEF",
    "player_id": "LAC",
    "last_name": "Chargers",
    "injury_status": null,
    "first_name": "Los Angeles",
    "fantasy_positions": [
      "DEF"
    ],
    "active": true
  },
  {
    "full_name": "Baltimore Ravens",
    "bye_week": "14",
    "team": "BAL",
    "sport": "nfl",
    "position": "DEF",
    "player_id": "BAL",
    "last_name": "Ravens",
    "injury_status": null,
    "first_name": "Baltimore",
    "fantasy_positions": [
      "DEF"
    ],
    "active": true
  },
  {
    "full_name": "Philadelphia Eagles",
    "bye_week": "5",
    "team": "PHI",
    "sport": "nfl",
    "position": "DEF",
    "player_id": "PHI",
    "last_name": "Eagles",
    "injury_status": null,
    "first_name": "Philadelphia",
    "fantasy_positions": [
      "DEF"
    ],
    "active": true
  },
  {
    "full_name": "Jacksonville Jaguars",
    "bye_week": "12",
    "team": "JAX",
    "sport": "nfl",
    "position": "DEF",
    "player_id": "JAX",
    "last_name": "Jaguars",
    "injury_status": null,
    "first_name": "Jacksonville",
    "fantasy_positions": [
      "DEF"
    ],
    "active": true
  },
  {
    "full_name": "Green Bay Packers",
    "bye_week": "10",
    "team": "GB",
    "sport": "nfl",
    "position": "DEF",
    "player_id": "GB",
    "last_name": "Packers",
    "injury_status": null,
    "first_name": "Green Bay",
    "fantasy_positions": [
      "DEF"
    ],
    "active": true
  },
  {
    "full_name": "New York Giants",
    "bye_week": "11",
    "team": "NYG",
    "sport": "nfl",
    "position": "DEF",
    "player_id": "NYG",
    "last_name": "Giants",
    "injury_status": null,
    "first_name": "New York",
    "fantasy_positions": [
      "DEF"
    ],
    "active": true
  },
  {
    "full_name": "Indianapolis Colts",
    "bye_week": "14",
    "team": "IND",
    "sport": "nfl",
    "position": "DEF",
    "player_id": "IND",
    "last_name": "Colts",
    "injury_status": null,
    "first_name": "Indianapolis",
    "fantasy_positions": [
      "DEF"
    ],
    "active": true
  },
  {
    "full_name": "New York Jets",
    "bye_week": "12",
    "team": "NYJ",
    "sport": "nfl",
    "position": "DEF",
    "player_id": "NYJ",
    "last_name": "Jets",
    "injury_status": null,
    "first_name": "New York",
    "fantasy_positions": [
      "DEF"
    ],
    "active": true
  },
  {
    "full_name": "Cincinnati Bengals",
    "bye_week": "12",
    "team": "CIN",
    "sport": "nfl",
    "position": "DEF",
    "player_id": "CIN",
    "last_name": "Bengals",
    "injury_status": null,
    "first_name": "Cincinnati",
    "fantasy_positions": [
      "DEF"
    ],
    "active": true
  },
  {
    "full_name": "Miami Dolphins",
    "bye_week": "6",
    "team": "MIA",
    "sport": "nfl",
    "position": "DEF",
    "player_id": "MIA",
    "last_name": "Dolphins",
    "injury_status": null,
    "first_name": "Miami",
    "fantasy_positions": [
      "DEF"
    ],
    "active": true
  },
  {
    "full_name": "Carolina Panthers",
    "bye_week": "11",
    "team": "CAR",
    "sport": "nfl",
    "position": "DEF",
    "player_id": "CAR",
    "last_name": "Panthers",
    "injury_status": null,
    "first_name": "Carolina",
    "fantasy_positions": [
      "DEF"
    ],
    "active": true
  },
  {
    "full_name": "New Orleans Saints",
    "bye_week": "12",
    "team": "NO",
    "sport": "nfl",
    "position": "DEF",
    "player_id": "NO",
    "last_name": "Saints",
    "injury_status": null,
    "first_name": "New Orleans",
    "fantasy_positions": [
      "DEF"
    ],
    "active": true
  },
  {
    "full_name": "San Francisco 49ers",
    "bye_week": "9",
    "team": "SF",
    "sport": "nfl",
    "position": "DEF",
    "player_id": "SF",
    "last_name": "49ers",
    "injury_status": null,
    "first_name": "San Francisco",
    "fantasy_positions": [
      "DEF"
    ],
    "active": true
  },
  {
    "full_name": "Dallas Cowboys",
    "bye_week": "7",
    "team": "DAL",
    "sport": "nfl",
    "position": "DEF",
    "player_id": "DAL",
    "last_name": "Cowboys",
    "injury_status": null,
    "first_name": "Dallas",
    "fantasy_positions": [
      "DEF"
    ],
    "active": true
  },
  {
    "full_name": "Denver Broncos",
    "bye_week": "14",
    "team": "DEN",
    "sport": "nfl",
    "position": "DEF",
    "player_id": "DEN",
    "last_name": "Broncos",
    "injury_status": null,
    "first_name": "Denver",
    "fantasy_positions": [
      "DEF"
    ],
    "active": true
  },
  {
    "full_name": "Tampa Bay Buccaneers",
    "bye_week": "11",
    "team": "TB",
    "sport": "nfl",
    "position": "DEF",
    "player_id": "TB",
    "last_name": "Buccaneers",
    "injury_status": null,
    "first_name": "Tampa Bay",
    "fantasy_positions": [
      "DEF"
    ],
    "active": true
  },
  {
    "full_name": "Chicago Bears",
    "bye_week": "7",
    "team": "CHI",
    "sport": "nfl",
    "position": "DEF",
    "player_id": "CHI",
    "last_name": "Bears",
    "injury_status": null,
    "first_name": "Chicago",
    "fantasy_positions": [
      "DEF"
    ],
    "active": true
  },
  {
    "full_name": "Kansas City Chiefs",
    "bye_week": "6",
    "team": "KC",
    "sport": "nfl",
    "position": "DEF",
    "player_id": "KC",
    "last_name": "Chiefs",
    "injury_status": null,
    "first_name": "Kansas City",
    "fantasy_positions": [
      "DEF"
    ],
    "active": true
  },
  {
    "full_name": "Buffalo Bills",
    "bye_week": "12",
    "team": "BUF",
    "sport": "nfl",
    "position": "DEF",
    "player_id": "BUF",
    "last_name": "Bills",
    "injury_status": null,
    "first_name": "Buffalo",
    "fantasy_positions": [
      "DEF"
    ],
    "active": true
  },
  {
    "full_name": "Minnesota Vikings",
    "bye_week": "6",
    "team": "MIN",
    "sport": "nfl",
    "position": "DEF",
    "player_id": "MIN",
    "last_name": "Vikings",
    "injury_status": null,
    "first_name": "Minnesota",
    "fantasy_positions": [
      "DEF"
    ],
    "active": true
  },
  {
    "full_name": "Detroit Lions",
    "bye_week": "5",
    "team": "DET",
    "sport": "nfl",
    "position": "DEF",
    "player_id": "DET",
    "last_name": "Lions",
    "injury_status": null,
    "first_name": "Detroit",
    "fantasy_positions": [
      "DEF"
    ],
    "active": true
  }
]